<?xml version="1.0" encoding="UTF-8"?>
<session version="1.0">
<refactoring comment="Delete resource &apos;Forge&apos;" deleteContents="false" description="Delete resource &apos;Forge&apos;" element1="/Forge" flags="7" id="org.eclipse.ltk.core.refactoring.delete.resources" resources="1" stamp="1438609833948"/>
</session>